{
  "mailgun": {
    "api_key": "YOUR MG PRIVATE API KEY",
    "domain": "YOURDOMAIN.COM",
    "sender": "E.G. POSTMASTER@YOURDOMAIN.COM",
    "recipient": "WHO YOU WANT TO SEND THE EMAIL TO"
  },
  "litmus": {
    "username": "LITMUS USER NAME",
    "password": "LITMUS PASS",
    "company": "LITMUS COMPANY/API SUBDOMAIN NAME"
  },
  "cloudfiles": {
    "user": "CLOUDFILES USERNAME",
    "key": "CLOUDFILES KEY",
    "region": "CLOUDFILES REGION E.G. ORD",
    "container": "CLOUDFILES CONTAINER NAME",
    "uri": "CLOUDFILES URI"
  },
  "s3": {
    "key": "AMAZON S3 KEY",
    "secret": "AMAZON S3 SECRET",
    "region": "AMAZON S3 REGION",
    "bucketname": "AMAZON S3 BUCKET NAME",
    "bucketdir": "AMAZON S3 BUCKET SUBDIRECTORY (optional)",
    "bucketuri": "AMAZON S3 PATH (ex: https://s3.amazonaws.com/)"
  },
  "ftp": {
    "sftp": true,
    "host": "test.rebex.net",
    "user": "demo",
    "password": "password",
    "port": 22,
    "pathToUpload": "/img",
    "publicUrl": "http://livenow.shop/testapi/img"
  }
}
